^D:\VISUALSTUDIO\LABO_11\LABO_11\DEBUG\SOURCE.OBJ
/OUT:"D:\VISUALSTUDIO\LABO_11\DEBUG\LABO_11.EXE" /INCREMENTAL /ILK:"DEBUG\LABO_11.ILK" /NOLOGO KERNEL32.LIB USER32.LIB GDI32.LIB WINSPOOL.LIB COMDLG32.LIB ADVAPI32.LIB SHELL32.LIB OLE32.LIB OLEAUT32.LIB UUID.LIB ODBC32.LIB ODBCCP32.LIB /MANIFEST /MANIFESTUAC:"level='asInvoker' uiAccess='false'" /manifest:embed /DEBUG /PDB:"D:\VISUALSTUDIO\LABO_11\DEBUG\LABO_11.PDB" /SUBSYSTEM:CONSOLE /TLBID:1 /DYNAMICBASE /NXCOMPAT /IMPLIB:"D:\VISUALSTUDIO\LABO_11\DEBUG\LABO_11.LIB" /MACHINE:X86 DEBUG\SOURCE.OBJ
^C:\USERS\YANNI\ONEDRIVE\BUREAU\VISUALSTUDIO\LABO\LABO_11\LABO_11\DEBUG\SOURCE.OBJ
/OUT:"C:\USERS\YANNI\ONEDRIVE\BUREAU\VISUALSTUDIO\LABO\LABO_11\DEBUG\LABO_11.EXE" /INCREMENTAL /ILK:"DEBUG\LABO_11.ILK" /NOLOGO KERNEL32.LIB USER32.LIB GDI32.LIB WINSPOOL.LIB COMDLG32.LIB ADVAPI32.LIB SHELL32.LIB OLE32.LIB OLEAUT32.LIB UUID.LIB ODBC32.LIB ODBCCP32.LIB /MANIFEST /MANIFESTUAC:"level='asInvoker' uiAccess='false'" /manifest:embed /DEBUG /PDB:"C:\USERS\YANNI\ONEDRIVE\BUREAU\VISUALSTUDIO\LABO\LABO_11\DEBUG\LABO_11.PDB" /SUBSYSTEM:CONSOLE /TLBID:1 /DYNAMICBASE /NXCOMPAT /IMPLIB:"C:\USERS\YANNI\ONEDRIVE\BUREAU\VISUALSTUDIO\LABO\LABO_11\DEBUG\LABO_11.LIB" /MACHINE:X86 DEBUG\SOURCE.OBJ
^C:\USERS\YANNI\ONEDRIVE\BUREAU\VISUALSTUDIO\LABO\LABO_11\LABO_11\DEBUG\FONCTION.OBJ|C:\USERS\YANNI\ONEDRIVE\BUREAU\VISUALSTUDIO\LABO\LABO_11\LABO_11\DEBUG\SOURCE.OBJ
/OUT:"C:\USERS\YANNI\ONEDRIVE\BUREAU\VISUALSTUDIO\LABO\LABO_11\DEBUG\LABO_11.EXE" /INCREMENTAL /ILK:"DEBUG\LABO_11.ILK" /NOLOGO KERNEL32.LIB USER32.LIB GDI32.LIB WINSPOOL.LIB COMDLG32.LIB ADVAPI32.LIB SHELL32.LIB OLE32.LIB OLEAUT32.LIB UUID.LIB ODBC32.LIB ODBCCP32.LIB /MANIFEST /MANIFESTUAC:"level='asInvoker' uiAccess='false'" /manifest:embed /DEBUG /PDB:"C:\USERS\YANNI\ONEDRIVE\BUREAU\VISUALSTUDIO\LABO\LABO_11\DEBUG\LABO_11.PDB" /SUBSYSTEM:CONSOLE /TLBID:1 /DYNAMICBASE /NXCOMPAT /IMPLIB:"C:\USERS\YANNI\ONEDRIVE\BUREAU\VISUALSTUDIO\LABO\LABO_11\DEBUG\LABO_11.LIB" /MACHINE:X86 DEBUG\FONCTION.OBJ
DEBUG\SOURCE.OBJ
